Agent Based Models Review/Practice - UCF CAP-6318
…
money_model()

StandardABM with 100 agents of type MoneyAgent
 agents container: Dict
 space: nothing (no spatial structure)
 scheduler: fastest

Simulation¶

m = money_model(N=2000)
adata = [:wealth]
df, _ = run!(m, 10; adata)

(22000×3 DataFrame
   Row │ time   id     wealth 
       │ Int64  Int64  Int64  
───────┼──────────────────────
     1 │     0      1       1
     2 │     0      2       1
     3 │     0      3       1
     4 │     0      4       1
     5 │     0      5       1
     6 │     0      6       1
     7 │     0      7       1
     8 │     0      8       1
     9 │     0      9       1
    10 │     0     10       1
    11 │     0     11       1
   ⋮   │   ⋮      ⋮      ⋮
 21991 │    10   1991       1
 21992 │    10   1992       0
 21993 │    10   1993       1
 21994 │    10   1994       1
 21995 │    10   1995       2
 21996 │    10   1996       1
 21997 │    10   1997       1
 21998 │    10   1998       1
 21999 │    10   1999       1
 22000 │    10   2000       0
            21979 rows omitted, 0×0 DataFrame)
…
function money_model_2d(; dims = (25, 25))
    space = GridSpace(dims, periodic = true)
    model = ABM(WealthInSpace, space; scheduler = Schedulers.Randomly(), agent_step! = agent_step!)

    fill_space!(model, 1)
    return model
end

money_model_2d (generic function with 1 method)

m2d = money_model_2d()
adata2d = [:wealth, :pos]
df2d, _ = run!(m2d, 10; adata=adata2d)

(6875×4 DataFrame
  Row │ time   id     wealth  pos      
      │ Int64  Int64  Int64   Tuple…   
──────┼────────────────────────────────
    1 │     0      1       1  (1, 1)
    2 │     0      2       1  (2, 1)
    3 │     0      3       1  (3, 1)
    4 │     0      4       1  (4, 1)
    5 │     0      5       1  (5, 1)
    6 │     0      6       1  (6, 1)
    7 │     0      7       1  (7, 1)
    8 │     0      8       1  (8, 1)
    9 │     0      9       1  (9, 1)
   10 │     0     10       1  (10, 1)
   11 │     0     11       1  (11, 1)
  ⋮   │   ⋮      ⋮      ⋮        ⋮
 6866 │    10    616       0  (16, 25)
 6867 │    10    617       0  (17, 25)
 6868 │    10    618       1  (18, 25)
 6869 │    10    619       0  (19, 25)
 6870 │    10    620       1  (20, 25)
 6871 │    10    621       0  (21, 25)
 6872 │    10    622       1  (22, 25)
 6873 │    10    623       2  (23, 25)
 6874 │    10    624       2  (24, 25)
 6875 │    10    625       0  (25, 25)
                      6854 rows omitted, 0×0 DataFrame)
…
